{
  "en": "English",
  "es": "Spanish",
  "pt": "Portuguese",
  "ar": "Arabic",
  "ko": "Korean",
  "tr": "Turkish",
  "fr": "French",
  "id": "Indonesian",
  "uk": "Ukrainian",
  "it": "Italian",
  "de": "German",
  "ru": "Russian",
  "fa": "Persian",
  "pl": "Polish",
  "tl": "Filipino",
  "nl": "Dutch",
  "ur": "Urdu",
  "ms": "Malay",
  "ca": "Catalan",
  "el": "Greek",
  "fi": "Finnish",
  "sv": "Swedish",
  "eo": "Esperanto",
  "sr": "Serbian",
  "vi": "Vietnamese"
}